# This is arch specific syscall table generated by scripts/dump-syscalls.sh

%( arch =="arm" %?
global __syscall_32_num2name[484]
global __syscall_32_name2num[484]
%)

probe init {
%( arch =="arm" %?
__syscall_32_num2name[285]="accept"
__syscall_32_num2name[500+5]="accept"
__syscall_32_name2num["accept"]=285
__syscall_32_num2name[366]="accept4"
__syscall_32_num2name[500+18]="accept4"
__syscall_32_name2num["accept4"]=366
__syscall_32_name2num["accept4"]=500+18
__syscall_32_name2num["accept"]=500+5
__syscall_32_num2name[33]="access"
__syscall_32_name2num["access"]=33
__syscall_32_num2name[51]="acct"
__syscall_32_name2num["acct"]=51
__syscall_32_num2name[309]="add_key"
__syscall_32_name2num["add_key"]=309
__syscall_32_num2name[124]="adjtimex"
__syscall_32_name2num["adjtimex"]=124
__syscall_32_num2name[137]="afs_syscall"
__syscall_32_name2num["afs_syscall"]=137
__syscall_32_num2name[27]="alarm"
__syscall_32_name2num["alarm"]=27
__syscall_32_num2name[134]="bdflush"
__syscall_32_name2num["bdflush"]=134
__syscall_32_num2name[282]="bind"
__syscall_32_num2name[500+2]="bind"
__syscall_32_name2num["bind"]=282
__syscall_32_name2num["bind"]=500+2
__syscall_32_num2name[386]="bpf"
__syscall_32_name2num["bpf"]=386
__syscall_32_num2name[17]="break"
__syscall_32_name2num["break"]=17
__syscall_32_num2name[(((500)+(21))+25)+1+1]="breakpoint"
__syscall_32_name2num["breakpoint"]=(((500)+(21))+25)+1+1
__syscall_32_num2name[45]="brk"
__syscall_32_name2num["brk"]=45
__syscall_32_num2name[(((500)+(21))+25)+1+2]="cacheflush"
__syscall_32_name2num["cacheflush"]=(((500)+(21))+25)+1+2
__syscall_32_num2name[184]="capget"
__syscall_32_name2num["capget"]=184
__syscall_32_num2name[185]="capset"
__syscall_32_name2num["capset"]=185
__syscall_32_num2name[12]="chdir"
__syscall_32_name2num["chdir"]=12
__syscall_32_num2name[15]="chmod"
__syscall_32_name2num["chmod"]=15
__syscall_32_num2name[182]="chown"
__syscall_32_name2num["chown"]=182
__syscall_32_num2name[212]="chown32"
__syscall_32_name2num["chown32"]=212
__syscall_32_num2name[61]="chroot"
__syscall_32_name2num["chroot"]=61
__syscall_32_num2name[372]="clock_adjtime"
__syscall_32_name2num["clock_adjtime"]=372
__syscall_32_num2name[0+405]="clock_adjtime64"
__syscall_32_name2num["clock_adjtime64"]=0+405
__syscall_32_num2name[264]="clock_getres"
__syscall_32_name2num["clock_getres"]=264
__syscall_32_num2name[0+406]="clock_getres_time64"
__syscall_32_name2num["clock_getres_time64"]=0+406
__syscall_32_num2name[263]="clock_gettime"
__syscall_32_name2num["clock_gettime"]=263
__syscall_32_num2name[0+403]="clock_gettime64"
__syscall_32_name2num["clock_gettime64"]=0+403
__syscall_32_num2name[265]="clock_nanosleep"
__syscall_32_name2num["clock_nanosleep"]=265
__syscall_32_num2name[0+407]="clock_nanosleep_time64"
__syscall_32_name2num["clock_nanosleep_time64"]=0+407
__syscall_32_num2name[262]="clock_settime"
__syscall_32_name2num["clock_settime"]=262
__syscall_32_num2name[0+404]="clock_settime64"
__syscall_32_name2num["clock_settime64"]=0+404
__syscall_32_num2name[120]="clone"
__syscall_32_name2num["clone"]=120
__syscall_32_num2name[0+435]="clone3"
__syscall_32_name2num["clone3"]=0+435
__syscall_32_num2name[6]="close"
__syscall_32_name2num["close"]=6
__syscall_32_num2name[0+436]="close_range"
__syscall_32_name2num["close_range"]=0+436
__syscall_32_num2name[(((500)+(21))+25)]="cmpxchg"
__syscall_32_name2num["cmpxchg"]=(((500)+(21))+25)
__syscall_32_num2name[283]="connect"
__syscall_32_num2name[500+3]="connect"
__syscall_32_name2num["connect"]=283
__syscall_32_name2num["connect"]=500+3
__syscall_32_num2name[391]="copy_file_range"
__syscall_32_name2num["copy_file_range"]=391
__syscall_32_num2name[8]="creat"
__syscall_32_name2num["creat"]=8
__syscall_32_num2name[127]="create_module"
__syscall_32_name2num["create_module"]=127
__syscall_32_num2name[129]="delete_module"
__syscall_32_name2num["delete_module"]=129
__syscall_32_num2name[41]="dup"
__syscall_32_num2name[63]="dup2"
__syscall_32_name2num["dup2"]=63
__syscall_32_num2name[358]="dup3"
__syscall_32_name2num["dup3"]=358
__syscall_32_name2num["dup"]=41
__syscall_32_num2name[250]="epoll_create"
__syscall_32_num2name[357]="epoll_create1"
__syscall_32_name2num["epoll_create1"]=357
__syscall_32_name2num["epoll_create"]=250
__syscall_32_num2name[251]="epoll_ctl"
__syscall_32_name2num["epoll_ctl"]=251
__syscall_32_num2name[346]="epoll_pwait"
__syscall_32_num2name[0+441]="epoll_pwait2"
__syscall_32_name2num["epoll_pwait2"]=0+441
__syscall_32_name2num["epoll_pwait"]=346
__syscall_32_num2name[252]="epoll_wait"
__syscall_32_name2num["epoll_wait"]=252
__syscall_32_num2name[351]="eventfd"
__syscall_32_num2name[356]="eventfd2"
__syscall_32_name2num["eventfd2"]=356
__syscall_32_name2num["eventfd"]=351
__syscall_32_num2name[11]="execve"
__syscall_32_name2num["execve"]=11
__syscall_32_num2name[387]="execveat"
__syscall_32_name2num["execveat"]=387
__syscall_32_num2name[1]="exit"
__syscall_32_name2num["exit"]=1
__syscall_32_num2name[248]="exit_group"
__syscall_32_name2num["exit_group"]=248
__syscall_32_num2name[334]="faccessat"
__syscall_32_num2name[0+439]="faccessat2"
__syscall_32_name2num["faccessat2"]=0+439
__syscall_32_name2num["faccessat"]=334
__syscall_32_num2name[270]="fadvise64_64"
__syscall_32_name2num["fadvise64_64"]=270
__syscall_32_num2name[352]="fallocate"
__syscall_32_name2num["fallocate"]=352
__syscall_32_num2name[367]="fanotify_init"
__syscall_32_name2num["fanotify_init"]=367
__syscall_32_num2name[368]="fanotify_mark"
__syscall_32_name2num["fanotify_mark"]=368
__syscall_32_num2name[133]="fchdir"
__syscall_32_name2num["fchdir"]=133
__syscall_32_num2name[94]="fchmod"
__syscall_32_name2num["fchmod"]=94
__syscall_32_num2name[333]="fchmodat"
__syscall_32_name2num["fchmodat"]=333
__syscall_32_num2name[95]="fchown"
__syscall_32_num2name[207]="fchown32"
__syscall_32_name2num["fchown32"]=207
__syscall_32_name2num["fchown"]=95
__syscall_32_num2name[325]="fchownat"
__syscall_32_name2num["fchownat"]=325
__syscall_32_num2name[55]="fcntl"
__syscall_32_name2num["fcntl"]=55
__syscall_32_num2name[221]="fcntl64"
__syscall_32_name2num["fcntl64"]=221
__syscall_32_num2name[148]="fdatasync"
__syscall_32_name2num["fdatasync"]=148
__syscall_32_num2name[231]="fgetxattr"
__syscall_32_name2num["fgetxattr"]=231
__syscall_32_num2name[379]="finit_module"
__syscall_32_name2num["finit_module"]=379
__syscall_32_num2name[234]="flistxattr"
__syscall_32_name2num["flistxattr"]=234
__syscall_32_num2name[143]="flock"
__syscall_32_name2num["flock"]=143
__syscall_32_num2name[2]="fork"
__syscall_32_name2num["fork"]=2
__syscall_32_num2name[237]="fremovexattr"
__syscall_32_name2num["fremovexattr"]=237
__syscall_32_num2name[0+431]="fsconfig"
__syscall_32_name2num["fsconfig"]=0+431
__syscall_32_num2name[228]="fsetxattr"
__syscall_32_name2num["fsetxattr"]=228
__syscall_32_num2name[0+432]="fsmount"
__syscall_32_name2num["fsmount"]=0+432
__syscall_32_num2name[0+430]="fsopen"
__syscall_32_name2num["fsopen"]=0+430
__syscall_32_num2name[0+433]="fspick"
__syscall_32_name2num["fspick"]=0+433
__syscall_32_num2name[108]="fstat"
__syscall_32_name2num["fstat"]=108
__syscall_32_num2name[197]="fstat64"
__syscall_32_name2num["fstat64"]=197
__syscall_32_num2name[327]="fstatat64"
__syscall_32_name2num["fstatat64"]=327
__syscall_32_num2name[100]="fstatfs"
__syscall_32_name2num["fstatfs"]=100
__syscall_32_num2name[267]="fstatfs64"
__syscall_32_name2num["fstatfs64"]=267
__syscall_32_num2name[118]="fsync"
__syscall_32_name2num["fsync"]=118
__syscall_32_num2name[35]="ftime"
__syscall_32_name2num["ftime"]=35
__syscall_32_num2name[93]="ftruncate"
__syscall_32_num2name[194]="ftruncate64"
__syscall_32_name2num["ftruncate64"]=194
__syscall_32_name2num["ftruncate"]=93
__syscall_32_num2name[240]="futex"
__syscall_32_name2num["futex"]=240
__syscall_32_num2name[0+422]="futex_time64"
__syscall_32_name2num["futex_time64"]=0+422
__syscall_32_num2name[0+449]="futex_waitv"
__syscall_32_name2num["futex_waitv"]=0+449
__syscall_32_num2name[326]="futimesat"
__syscall_32_name2num["futimesat"]=326
__syscall_32_num2name[345]="getcpu"
__syscall_32_name2num["getcpu"]=345
__syscall_32_num2name[183]="getcwd"
__syscall_32_name2num["getcwd"]=183
__syscall_32_num2name[141]="getdents"
__syscall_32_name2num["getdents"]=141
__syscall_32_num2name[217]="getdents64"
__syscall_32_name2num["getdents64"]=217
__syscall_32_num2name[50]="getegid"
__syscall_32_num2name[202]="getegid32"
__syscall_32_name2num["getegid32"]=202
__syscall_32_name2num["getegid"]=50
__syscall_32_num2name[49]="geteuid"
__syscall_32_num2name[201]="geteuid32"
__syscall_32_name2num["geteuid32"]=201
__syscall_32_name2num["geteuid"]=49
__syscall_32_num2name[47]="getgid"
__syscall_32_num2name[200]="getgid32"
__syscall_32_name2num["getgid32"]=200
__syscall_32_name2num["getgid"]=47
__syscall_32_num2name[80]="getgroups"
__syscall_32_num2name[205]="getgroups32"
__syscall_32_name2num["getgroups32"]=205
__syscall_32_name2num["getgroups"]=80
__syscall_32_num2name[105]="getitimer"
__syscall_32_name2num["getitimer"]=105
__syscall_32_num2name[130]="get_kernel_syms"
__syscall_32_name2num["get_kernel_syms"]=130
__syscall_32_num2name[320]="get_mempolicy"
__syscall_32_name2num["get_mempolicy"]=320
__syscall_32_num2name[287]="getpeername"
__syscall_32_num2name[500+7]="getpeername"
__syscall_32_name2num["getpeername"]=287
__syscall_32_name2num["getpeername"]=500+7
__syscall_32_num2name[132]="getpgid"
__syscall_32_name2num["getpgid"]=132
__syscall_32_num2name[65]="getpgrp"
__syscall_32_name2num["getpgrp"]=65
__syscall_32_num2name[20]="getpid"
__syscall_32_name2num["getpid"]=20
__syscall_32_num2name[188]="getpmsg"
__syscall_32_name2num["getpmsg"]=188
__syscall_32_num2name[64]="getppid"
__syscall_32_name2num["getppid"]=64
__syscall_32_num2name[96]="getpriority"
__syscall_32_name2num["getpriority"]=96
__syscall_32_num2name[384]="getrandom"
__syscall_32_name2num["getrandom"]=384
__syscall_32_num2name[171]="getresgid"
__syscall_32_name2num["getresgid"]=171
__syscall_32_num2name[211]="getresgid32"
__syscall_32_name2num["getresgid32"]=211
__syscall_32_num2name[165]="getresuid"
__syscall_32_name2num["getresuid"]=165
__syscall_32_num2name[209]="getresuid32"
__syscall_32_name2num["getresuid32"]=209
__syscall_32_num2name[76]="getrlimit"
__syscall_32_name2num["getrlimit"]=76
__syscall_32_num2name[339]="get_robust_list"
__syscall_32_name2num["get_robust_list"]=339
__syscall_32_num2name[77]="getrusage"
__syscall_32_name2num["getrusage"]=77
__syscall_32_num2name[147]="getsid"
__syscall_32_name2num["getsid"]=147
__syscall_32_num2name[286]="getsockname"
__syscall_32_num2name[500+6]="getsockname"
__syscall_32_name2num["getsockname"]=286
__syscall_32_name2num["getsockname"]=500+6
__syscall_32_num2name[295]="getsockopt"
__syscall_32_num2name[500+15]="getsockopt"
__syscall_32_name2num["getsockopt"]=295
__syscall_32_name2num["getsockopt"]=500+15
__syscall_32_num2name[224]="gettid"
__syscall_32_name2num["gettid"]=224
__syscall_32_num2name[78]="gettimeofday"
__syscall_32_name2num["gettimeofday"]=78
__syscall_32_num2name[(((500)+(21))+25)+1+6]="get_tls"
__syscall_32_name2num["get_tls"]=(((500)+(21))+25)+1+6
__syscall_32_num2name[24]="getuid"
__syscall_32_name2num["getuid"]=24
__syscall_32_num2name[199]="getuid32"
__syscall_32_name2num["getuid32"]=199
__syscall_32_num2name[229]="getxattr"
__syscall_32_name2num["getxattr"]=229
__syscall_32_num2name[32]="gtty"
__syscall_32_name2num["gtty"]=32
__syscall_32_num2name[112]="idle"
__syscall_32_name2num["idle"]=112
__syscall_32_num2name[128]="init_module"
__syscall_32_name2num["init_module"]=128
__syscall_32_num2name[317]="inotify_add_watch"
__syscall_32_name2num["inotify_add_watch"]=317
__syscall_32_num2name[316]="inotify_init"
__syscall_32_num2name[360]="inotify_init1"
__syscall_32_name2num["inotify_init1"]=360
__syscall_32_name2num["inotify_init"]=316
__syscall_32_num2name[318]="inotify_rm_watch"
__syscall_32_name2num["inotify_rm_watch"]=318
__syscall_32_num2name[247]="io_cancel"
__syscall_32_name2num["io_cancel"]=247
__syscall_32_num2name[54]="ioctl"
__syscall_32_name2num["ioctl"]=54
__syscall_32_num2name[244]="io_destroy"
__syscall_32_name2num["io_destroy"]=244
__syscall_32_num2name[245]="io_getevents"
__syscall_32_name2num["io_getevents"]=245
__syscall_32_num2name[101]="ioperm"
__syscall_32_name2num["ioperm"]=101
__syscall_32_num2name[399]="io_pgetevents"
__syscall_32_name2num["io_pgetevents"]=399
__syscall_32_num2name[0+416]="io_pgetevents_time64"
__syscall_32_name2num["io_pgetevents_time64"]=0+416
__syscall_32_num2name[110]="iopl"
__syscall_32_name2num["iopl"]=110
__syscall_32_num2name[315]="ioprio_get"
__syscall_32_name2num["ioprio_get"]=315
__syscall_32_num2name[314]="ioprio_set"
__syscall_32_name2num["ioprio_set"]=314
__syscall_32_num2name[243]="io_setup"
__syscall_32_name2num["io_setup"]=243
__syscall_32_num2name[246]="io_submit"
__syscall_32_name2num["io_submit"]=246
__syscall_32_num2name[0+426]="io_uring_enter"
__syscall_32_name2num["io_uring_enter"]=0+426
__syscall_32_num2name[0+427]="io_uring_register"
__syscall_32_name2num["io_uring_register"]=0+427
__syscall_32_num2name[0+425]="io_uring_setup"
__syscall_32_name2num["io_uring_setup"]=0+425
__syscall_32_num2name[117]="ipc"
__syscall_32_name2num["ipc"]=117
__syscall_32_num2name[378]="kcmp"
__syscall_32_name2num["kcmp"]=378
__syscall_32_num2name[401]="kexec_file_load"
__syscall_32_name2num["kexec_file_load"]=401
__syscall_32_num2name[347]="kexec_load"
__syscall_32_name2num["kexec_load"]=347
__syscall_32_num2name[311]="keyctl"
__syscall_32_name2num["keyctl"]=311
__syscall_32_num2name[37]="kill"
__syscall_32_name2num["kill"]=37
__syscall_32_num2name[0+445]="landlock_add_rule"
__syscall_32_name2num["landlock_add_rule"]=0+445
__syscall_32_num2name[0+444]="landlock_create_ruleset"
__syscall_32_name2num["landlock_create_ruleset"]=0+444
__syscall_32_num2name[0+446]="landlock_restrict_self"
__syscall_32_name2num["landlock_restrict_self"]=0+446
__syscall_32_num2name[16]="lchown"
__syscall_32_name2num["lchown"]=16
__syscall_32_num2name[198]="lchown32"
__syscall_32_name2num["lchown32"]=198
__syscall_32_num2name[230]="lgetxattr"
__syscall_32_name2num["lgetxattr"]=230
__syscall_32_num2name[9]="link"
__syscall_32_name2num["link"]=9
__syscall_32_num2name[330]="linkat"
__syscall_32_name2num["linkat"]=330
__syscall_32_num2name[284]="listen"
__syscall_32_num2name[500+4]="listen"
__syscall_32_name2num["listen"]=284
__syscall_32_name2num["listen"]=500+4
__syscall_32_num2name[232]="listxattr"
__syscall_32_name2num["listxattr"]=232
__syscall_32_num2name[233]="llistxattr"
__syscall_32_name2num["llistxattr"]=233
__syscall_32_num2name[140]="_llseek"
__syscall_32_name2num["_llseek"]=140
__syscall_32_num2name[53]="lock"
__syscall_32_name2num["lock"]=53
__syscall_32_num2name[249]="lookup_dcookie"
__syscall_32_name2num["lookup_dcookie"]=249
__syscall_32_num2name[236]="lremovexattr"
__syscall_32_name2num["lremovexattr"]=236
__syscall_32_num2name[19]="lseek"
__syscall_32_name2num["lseek"]=19
__syscall_32_num2name[227]="lsetxattr"
__syscall_32_name2num["lsetxattr"]=227
__syscall_32_num2name[107]="lstat"
__syscall_32_name2num["lstat"]=107
__syscall_32_num2name[196]="lstat64"
__syscall_32_name2num["lstat64"]=196
__syscall_32_num2name[220]="madvise"
__syscall_32_name2num["madvise"]=220
__syscall_32_num2name[319]="mbind"
__syscall_32_name2num["mbind"]=319
__syscall_32_num2name[389]="membarrier"
__syscall_32_name2num["membarrier"]=389
__syscall_32_num2name[385]="memfd_create"
__syscall_32_name2num["memfd_create"]=385
__syscall_32_num2name[0+447]="memfd_secret"
__syscall_32_name2num["memfd_secret"]=0+447
__syscall_32_num2name[400]="migrate_pages"
__syscall_32_name2num["migrate_pages"]=400
__syscall_32_num2name[219]="mincore"
__syscall_32_name2num["mincore"]=219
__syscall_32_num2name[39]="mkdir"
__syscall_32_name2num["mkdir"]=39
__syscall_32_num2name[323]="mkdirat"
__syscall_32_name2num["mkdirat"]=323
__syscall_32_num2name[14]="mknod"
__syscall_32_name2num["mknod"]=14
__syscall_32_num2name[324]="mknodat"
__syscall_32_name2num["mknodat"]=324
__syscall_32_num2name[150]="mlock"
__syscall_32_name2num["mlock"]=150
__syscall_32_num2name[390]="mlock2"
__syscall_32_name2num["mlock2"]=390
__syscall_32_num2name[152]="mlockall"
__syscall_32_name2num["mlockall"]=152
__syscall_32_num2name[90]="mmap"
__syscall_32_num2name[192]="mmap2"
__syscall_32_name2num["mmap2"]=192
__syscall_32_name2num["mmap"]=90
__syscall_32_num2name[123]="modify_ldt"
__syscall_32_name2num["modify_ldt"]=123
__syscall_32_num2name[21]="mount"
__syscall_32_name2num["mount"]=21
__syscall_32_num2name[0+442]="mount_setattr"
__syscall_32_name2num["mount_setattr"]=0+442
__syscall_32_num2name[0+429]="move_mount"
__syscall_32_name2num["move_mount"]=0+429
__syscall_32_num2name[344]="move_pages"
__syscall_32_name2num["move_pages"]=344
__syscall_32_num2name[125]="mprotect"
__syscall_32_name2num["mprotect"]=125
__syscall_32_num2name[56]="mpx"
__syscall_32_name2num["mpx"]=56
__syscall_32_num2name[279]="mq_getsetattr"
__syscall_32_name2num["mq_getsetattr"]=279
__syscall_32_num2name[278]="mq_notify"
__syscall_32_name2num["mq_notify"]=278
__syscall_32_num2name[274]="mq_open"
__syscall_32_name2num["mq_open"]=274
__syscall_32_num2name[277]="mq_timedreceive"
__syscall_32_name2num["mq_timedreceive"]=277
__syscall_32_num2name[0+419]="mq_timedreceive_time64"
__syscall_32_name2num["mq_timedreceive_time64"]=0+419
__syscall_32_num2name[276]="mq_timedsend"
__syscall_32_name2num["mq_timedsend"]=276
__syscall_32_num2name[0+418]="mq_timedsend_time64"
__syscall_32_name2num["mq_timedsend_time64"]=0+418
__syscall_32_num2name[275]="mq_unlink"
__syscall_32_name2num["mq_unlink"]=275
__syscall_32_num2name[163]="mremap"
__syscall_32_name2num["mremap"]=163
__syscall_32_num2name[304]="msgctl"
__syscall_32_num2name[((500)+(21))+14]="msgctl"
__syscall_32_name2num["msgctl"]=304
__syscall_32_name2num["msgctl"]=((500)+(21))+14
__syscall_32_num2name[303]="msgget"
__syscall_32_num2name[((500)+(21))+13]="msgget"
__syscall_32_name2num["msgget"]=303
__syscall_32_name2num["msgget"]=((500)+(21))+13
__syscall_32_num2name[302]="msgrcv"
__syscall_32_num2name[((500)+(21))+12]="msgrcv"
__syscall_32_name2num["msgrcv"]=302
__syscall_32_name2num["msgrcv"]=((500)+(21))+12
__syscall_32_num2name[301]="msgsnd"
__syscall_32_num2name[((500)+(21))+11]="msgsnd"
__syscall_32_name2num["msgsnd"]=301
__syscall_32_name2num["msgsnd"]=((500)+(21))+11
__syscall_32_num2name[144]="msync"
__syscall_32_name2num["msync"]=144
__syscall_32_num2name[151]="munlock"
__syscall_32_name2num["munlock"]=151
__syscall_32_num2name[153]="munlockall"
__syscall_32_name2num["munlockall"]=153
__syscall_32_num2name[91]="munmap"
__syscall_32_name2num["munmap"]=91
__syscall_32_num2name[370]="name_to_handle_at"
__syscall_32_name2num["name_to_handle_at"]=370
__syscall_32_num2name[162]="nanosleep"
__syscall_32_name2num["nanosleep"]=162
__syscall_32_num2name[142]="_newselect"
__syscall_32_name2num["_newselect"]=142
__syscall_32_num2name[169]="nfsservctl"
__syscall_32_name2num["nfsservctl"]=169
__syscall_32_num2name[34]="nice"
__syscall_32_name2num["nice"]=34
__syscall_32_num2name[28]="oldfstat"
__syscall_32_name2num["oldfstat"]=28
__syscall_32_num2name[84]="oldlstat"
__syscall_32_name2num["oldlstat"]=84
__syscall_32_num2name[59]="oldolduname"
__syscall_32_name2num["oldolduname"]=59
__syscall_32_num2name[18]="oldstat"
__syscall_32_name2num["oldstat"]=18
__syscall_32_num2name[109]="olduname"
__syscall_32_name2num["olduname"]=109
__syscall_32_num2name[5]="open"
__syscall_32_name2num["open"]=5
__syscall_32_num2name[322]="openat"
__syscall_32_num2name[0+437]="openat2"
__syscall_32_name2num["openat2"]=0+437
__syscall_32_name2num["openat"]=322
__syscall_32_num2name[371]="open_by_handle_at"
__syscall_32_name2num["open_by_handle_at"]=371
__syscall_32_num2name[0+428]="open_tree"
__syscall_32_name2num["open_tree"]=0+428
__syscall_32_num2name[29]="pause"
__syscall_32_name2num["pause"]=29
__syscall_32_num2name[271]="pciconfig_iobase"
__syscall_32_name2num["pciconfig_iobase"]=271
__syscall_32_num2name[272]="pciconfig_read"
__syscall_32_name2num["pciconfig_read"]=272
__syscall_32_num2name[273]="pciconfig_write"
__syscall_32_name2num["pciconfig_write"]=273
__syscall_32_num2name[364]="perf_event_open"
__syscall_32_name2num["perf_event_open"]=364
__syscall_32_num2name[136]="personality"
__syscall_32_name2num["personality"]=136
__syscall_32_num2name[0+438]="pidfd_getfd"
__syscall_32_name2num["pidfd_getfd"]=0+438
__syscall_32_num2name[0+434]="pidfd_open"
__syscall_32_name2num["pidfd_open"]=0+434
__syscall_32_num2name[0+424]="pidfd_send_signal"
__syscall_32_name2num["pidfd_send_signal"]=0+424
__syscall_32_num2name[42]="pipe"
__syscall_32_num2name[359]="pipe2"
__syscall_32_name2num["pipe2"]=359
__syscall_32_name2num["pipe"]=42
__syscall_32_num2name[218]="pivot_root"
__syscall_32_name2num["pivot_root"]=218
__syscall_32_num2name[395]="pkey_alloc"
__syscall_32_name2num["pkey_alloc"]=395
__syscall_32_num2name[396]="pkey_free"
__syscall_32_name2num["pkey_free"]=396
__syscall_32_num2name[394]="pkey_mprotect"
__syscall_32_name2num["pkey_mprotect"]=394
__syscall_32_num2name[168]="poll"
__syscall_32_name2num["poll"]=168
__syscall_32_num2name[336]="ppoll"
__syscall_32_name2num["ppoll"]=336
__syscall_32_num2name[0+414]="ppoll_time64"
__syscall_32_name2num["ppoll_time64"]=0+414
__syscall_32_num2name[172]="prctl"
__syscall_32_name2num["prctl"]=172
__syscall_32_num2name[180]="pread64"
__syscall_32_name2num["pread64"]=180
__syscall_32_num2name[361]="preadv"
__syscall_32_num2name[392]="preadv2"
__syscall_32_name2num["preadv2"]=392
__syscall_32_name2num["preadv"]=361
__syscall_32_num2name[369]="prlimit64"
__syscall_32_name2num["prlimit64"]=369
__syscall_32_num2name[0+440]="process_madvise"
__syscall_32_name2num["process_madvise"]=0+440
__syscall_32_num2name[0+448]="process_mrelease"
__syscall_32_name2num["process_mrelease"]=0+448
__syscall_32_num2name[376]="process_vm_readv"
__syscall_32_name2num["process_vm_readv"]=376
__syscall_32_num2name[377]="process_vm_writev"
__syscall_32_name2num["process_vm_writev"]=377
__syscall_32_num2name[44]="prof"
__syscall_32_name2num["prof"]=44
__syscall_32_num2name[98]="profil"
__syscall_32_name2num["profil"]=98
__syscall_32_num2name[335]="pselect6"
__syscall_32_name2num["pselect6"]=335
__syscall_32_num2name[0+413]="pselect6_time64"
__syscall_32_name2num["pselect6_time64"]=0+413
__syscall_32_num2name[26]="ptrace"
__syscall_32_name2num["ptrace"]=26
__syscall_32_num2name[189]="putpmsg"
__syscall_32_name2num["putpmsg"]=189
__syscall_32_num2name[181]="pwrite64"
__syscall_32_name2num["pwrite64"]=181
__syscall_32_num2name[362]="pwritev"
__syscall_32_num2name[393]="pwritev2"
__syscall_32_name2num["pwritev2"]=393
__syscall_32_name2num["pwritev"]=362
__syscall_32_num2name[167]="query_module"
__syscall_32_name2num["query_module"]=167
__syscall_32_num2name[131]="quotactl"
__syscall_32_name2num["quotactl"]=131
__syscall_32_num2name[0+443]="quotactl_fd"
__syscall_32_name2num["quotactl_fd"]=0+443
__syscall_32_num2name[3]="read"
__syscall_32_name2num["read"]=3
__syscall_32_num2name[225]="readahead"
__syscall_32_name2num["readahead"]=225
__syscall_32_num2name[89]="readdir"
__syscall_32_name2num["readdir"]=89
__syscall_32_num2name[85]="readlink"
__syscall_32_name2num["readlink"]=85
__syscall_32_num2name[332]="readlinkat"
__syscall_32_name2num["readlinkat"]=332
__syscall_32_num2name[145]="readv"
__syscall_32_name2num["readv"]=145
__syscall_32_num2name[88]="reboot"
__syscall_32_name2num["reboot"]=88
__syscall_32_num2name[291]="recv"
__syscall_32_num2name[500+10]="recv"
__syscall_32_name2num["recv"]=291
__syscall_32_name2num["recv"]=500+10
__syscall_32_num2name[292]="recvfrom"
__syscall_32_num2name[500+12]="recvfrom"
__syscall_32_name2num["recvfrom"]=292
__syscall_32_name2num["recvfrom"]=500+12
__syscall_32_num2name[365]="recvmmsg"
__syscall_32_num2name[500+19]="recvmmsg"
__syscall_32_name2num["recvmmsg"]=365
__syscall_32_name2num["recvmmsg"]=500+19
__syscall_32_num2name[0+417]="recvmmsg_time64"
__syscall_32_name2num["recvmmsg_time64"]=0+417
__syscall_32_num2name[297]="recvmsg"
__syscall_32_num2name[500+17]="recvmsg"
__syscall_32_name2num["recvmsg"]=297
__syscall_32_name2num["recvmsg"]=500+17
__syscall_32_num2name[253]="remap_file_pages"
__syscall_32_name2num["remap_file_pages"]=253
__syscall_32_num2name[235]="removexattr"
__syscall_32_name2num["removexattr"]=235
__syscall_32_num2name[38]="rename"
__syscall_32_name2num["rename"]=38
__syscall_32_num2name[329]="renameat"
__syscall_32_num2name[382]="renameat2"
__syscall_32_name2num["renameat2"]=382
__syscall_32_name2num["renameat"]=329
__syscall_32_num2name[310]="request_key"
__syscall_32_name2num["request_key"]=310
__syscall_32_num2name[0]="restart_syscall"
__syscall_32_name2num["restart_syscall"]=0
__syscall_32_num2name[40]="rmdir"
__syscall_32_name2num["rmdir"]=40
__syscall_32_num2name[398]="rseq"
__syscall_32_name2num["rseq"]=398
__syscall_32_num2name[174]="rt_sigaction"
__syscall_32_name2num["rt_sigaction"]=174
__syscall_32_num2name[176]="rt_sigpending"
__syscall_32_name2num["rt_sigpending"]=176
__syscall_32_num2name[175]="rt_sigprocmask"
__syscall_32_name2num["rt_sigprocmask"]=175
__syscall_32_num2name[178]="rt_sigqueueinfo"
__syscall_32_name2num["rt_sigqueueinfo"]=178
__syscall_32_num2name[173]="rt_sigreturn"
__syscall_32_name2num["rt_sigreturn"]=173
__syscall_32_num2name[179]="rt_sigsuspend"
__syscall_32_name2num["rt_sigsuspend"]=179
__syscall_32_num2name[177]="rt_sigtimedwait"
__syscall_32_name2num["rt_sigtimedwait"]=177
__syscall_32_num2name[0+421]="rt_sigtimedwait_time64"
__syscall_32_name2num["rt_sigtimedwait_time64"]=0+421
__syscall_32_num2name[363]="rt_tgsigqueueinfo"
__syscall_32_name2num["rt_tgsigqueueinfo"]=363
__syscall_32_num2name[242]="sched_getaffinity"
__syscall_32_name2num["sched_getaffinity"]=242
__syscall_32_num2name[381]="sched_getattr"
__syscall_32_name2num["sched_getattr"]=381
__syscall_32_num2name[155]="sched_getparam"
__syscall_32_name2num["sched_getparam"]=155
__syscall_32_num2name[159]="sched_get_priority_max"
__syscall_32_name2num["sched_get_priority_max"]=159
__syscall_32_num2name[160]="sched_get_priority_min"
__syscall_32_name2num["sched_get_priority_min"]=160
__syscall_32_num2name[157]="sched_getscheduler"
__syscall_32_name2num["sched_getscheduler"]=157
__syscall_32_num2name[161]="sched_rr_get_interval"
__syscall_32_name2num["sched_rr_get_interval"]=161
__syscall_32_num2name[0+423]="sched_rr_get_interval_time64"
__syscall_32_name2num["sched_rr_get_interval_time64"]=0+423
__syscall_32_num2name[241]="sched_setaffinity"
__syscall_32_name2num["sched_setaffinity"]=241
__syscall_32_num2name[380]="sched_setattr"
__syscall_32_name2num["sched_setattr"]=380
__syscall_32_num2name[154]="sched_setparam"
__syscall_32_name2num["sched_setparam"]=154
__syscall_32_num2name[156]="sched_setscheduler"
__syscall_32_name2num["sched_setscheduler"]=156
__syscall_32_num2name[158]="sched_yield"
__syscall_32_name2num["sched_yield"]=158
__syscall_32_num2name[383]="seccomp"
__syscall_32_name2num["seccomp"]=383
__syscall_32_num2name[82]="select"
__syscall_32_name2num["select"]=82
__syscall_32_num2name[300]="semctl"
__syscall_32_num2name[((500)+(21))+3]="semctl"
__syscall_32_name2num["semctl"]=300
__syscall_32_name2num["semctl"]=((500)+(21))+3
__syscall_32_num2name[299]="semget"
__syscall_32_num2name[((500)+(21))+2]="semget"
__syscall_32_name2num["semget"]=299
__syscall_32_name2num["semget"]=((500)+(21))+2
__syscall_32_num2name[298]="semop"
__syscall_32_num2name[((500)+(21))+1]="semop"
__syscall_32_name2num["semop"]=298
__syscall_32_name2num["semop"]=((500)+(21))+1
__syscall_32_num2name[312]="semtimedop"
__syscall_32_num2name[((500)+(21))+4]="semtimedop"
__syscall_32_name2num["semtimedop"]=312
__syscall_32_name2num["semtimedop"]=((500)+(21))+4
__syscall_32_num2name[0+420]="semtimedop_time64"
__syscall_32_name2num["semtimedop_time64"]=0+420
__syscall_32_num2name[289]="send"
__syscall_32_num2name[500+9]="send"
__syscall_32_name2num["send"]=289
__syscall_32_name2num["send"]=500+9
__syscall_32_num2name[187]="sendfile"
__syscall_32_name2num["sendfile"]=187
__syscall_32_num2name[239]="sendfile64"
__syscall_32_name2num["sendfile64"]=239
__syscall_32_num2name[374]="sendmmsg"
__syscall_32_num2name[500+20]="sendmmsg"
__syscall_32_name2num["sendmmsg"]=374
__syscall_32_name2num["sendmmsg"]=500+20
__syscall_32_num2name[296]="sendmsg"
__syscall_32_num2name[500+16]="sendmsg"
__syscall_32_name2num["sendmsg"]=296
__syscall_32_name2num["sendmsg"]=500+16
__syscall_32_num2name[290]="sendto"
__syscall_32_num2name[500+11]="sendto"
__syscall_32_name2num["sendto"]=290
__syscall_32_name2num["sendto"]=500+11
__syscall_32_num2name[121]="setdomainname"
__syscall_32_name2num["setdomainname"]=121
__syscall_32_num2name[139]="setfsgid"
__syscall_32_name2num["setfsgid"]=139
__syscall_32_num2name[216]="setfsgid32"
__syscall_32_name2num["setfsgid32"]=216
__syscall_32_num2name[138]="setfsuid"
__syscall_32_name2num["setfsuid"]=138
__syscall_32_num2name[215]="setfsuid32"
__syscall_32_name2num["setfsuid32"]=215
__syscall_32_num2name[46]="setgid"
__syscall_32_num2name[214]="setgid32"
__syscall_32_name2num["setgid32"]=214
__syscall_32_name2num["setgid"]=46
__syscall_32_num2name[81]="setgroups"
__syscall_32_num2name[206]="setgroups32"
__syscall_32_name2num["setgroups32"]=206
__syscall_32_name2num["setgroups"]=81
__syscall_32_num2name[74]="sethostname"
__syscall_32_name2num["sethostname"]=74
__syscall_32_num2name[104]="setitimer"
__syscall_32_name2num["setitimer"]=104
__syscall_32_num2name[321]="set_mempolicy"
__syscall_32_name2num["set_mempolicy"]=321
__syscall_32_num2name[0+450]="set_mempolicy_home_node"
__syscall_32_name2num["set_mempolicy_home_node"]=0+450
__syscall_32_num2name[375]="setns"
__syscall_32_name2num["setns"]=375
__syscall_32_num2name[57]="setpgid"
__syscall_32_name2num["setpgid"]=57
__syscall_32_num2name[97]="setpriority"
__syscall_32_name2num["setpriority"]=97
__syscall_32_num2name[71]="setregid"
__syscall_32_num2name[204]="setregid32"
__syscall_32_name2num["setregid32"]=204
__syscall_32_name2num["setregid"]=71
__syscall_32_num2name[170]="setresgid"
__syscall_32_name2num["setresgid"]=170
__syscall_32_num2name[210]="setresgid32"
__syscall_32_name2num["setresgid32"]=210
__syscall_32_num2name[164]="setresuid"
__syscall_32_name2num["setresuid"]=164
__syscall_32_num2name[208]="setresuid32"
__syscall_32_name2num["setresuid32"]=208
__syscall_32_num2name[70]="setreuid"
__syscall_32_num2name[203]="setreuid32"
__syscall_32_name2num["setreuid32"]=203
__syscall_32_name2num["setreuid"]=70
__syscall_32_num2name[75]="setrlimit"
__syscall_32_name2num["setrlimit"]=75
__syscall_32_num2name[338]="set_robust_list"
__syscall_32_name2num["set_robust_list"]=338
__syscall_32_num2name[66]="setsid"
__syscall_32_name2num["setsid"]=66
__syscall_32_num2name[294]="setsockopt"
__syscall_32_num2name[500+14]="setsockopt"
__syscall_32_name2num["setsockopt"]=294
__syscall_32_name2num["setsockopt"]=500+14
__syscall_32_num2name[256]="set_tid_address"
__syscall_32_name2num["set_tid_address"]=256
__syscall_32_num2name[79]="settimeofday"
__syscall_32_name2num["settimeofday"]=79
__syscall_32_num2name[(((500)+(21))+25)+1+5]="set_tls"
__syscall_32_name2num["set_tls"]=(((500)+(21))+25)+1+5
__syscall_32_num2name[23]="setuid"
__syscall_32_name2num["setuid"]=23
__syscall_32_num2name[213]="setuid32"
__syscall_32_name2num["setuid32"]=213
__syscall_32_num2name[226]="setxattr"
__syscall_32_name2num["setxattr"]=226
__syscall_32_num2name[68]="sgetmask"
__syscall_32_name2num["sgetmask"]=68
__syscall_32_num2name[305]="shmat"
__syscall_32_num2name[((500)+(21))+21]="shmat"
__syscall_32_name2num["shmat"]=305
__syscall_32_name2num["shmat"]=((500)+(21))+21
__syscall_32_num2name[308]="shmctl"
__syscall_32_num2name[((500)+(21))+24]="shmctl"
__syscall_32_name2num["shmctl"]=308
__syscall_32_name2num["shmctl"]=((500)+(21))+24
__syscall_32_num2name[306]="shmdt"
__syscall_32_num2name[((500)+(21))+22]="shmdt"
__syscall_32_name2num["shmdt"]=306
__syscall_32_name2num["shmdt"]=((500)+(21))+22
__syscall_32_num2name[307]="shmget"
__syscall_32_num2name[((500)+(21))+23]="shmget"
__syscall_32_name2num["shmget"]=307
__syscall_32_name2num["shmget"]=((500)+(21))+23
__syscall_32_num2name[293]="shutdown"
__syscall_32_num2name[500+13]="shutdown"
__syscall_32_name2num["shutdown"]=293
__syscall_32_name2num["shutdown"]=500+13
__syscall_32_num2name[67]="sigaction"
__syscall_32_name2num["sigaction"]=67
__syscall_32_num2name[186]="sigaltstack"
__syscall_32_name2num["sigaltstack"]=186
__syscall_32_num2name[48]="signal"
__syscall_32_name2num["signal"]=48
__syscall_32_num2name[349]="signalfd"
__syscall_32_name2num["signalfd"]=349
__syscall_32_num2name[355]="signalfd4"
__syscall_32_name2num["signalfd4"]=355
__syscall_32_num2name[73]="sigpending"
__syscall_32_name2num["sigpending"]=73
__syscall_32_num2name[126]="sigprocmask"
__syscall_32_name2num["sigprocmask"]=126
__syscall_32_num2name[119]="sigreturn"
__syscall_32_name2num["sigreturn"]=119
__syscall_32_num2name[72]="sigsuspend"
__syscall_32_name2num["sigsuspend"]=72
__syscall_32_num2name[281]="socket"
__syscall_32_num2name[500+1]="socket"
__syscall_32_name2num["socket"]=281
__syscall_32_name2num["socket"]=500+1
__syscall_32_num2name[102]="socketcall"
__syscall_32_name2num["socketcall"]=102
__syscall_32_num2name[288]="socketpair"
__syscall_32_num2name[500+8]="socketpair"
__syscall_32_name2num["socketpair"]=288
__syscall_32_name2num["socketpair"]=500+8
__syscall_32_num2name[340]="splice"
__syscall_32_name2num["splice"]=340
__syscall_32_num2name[69]="ssetmask"
__syscall_32_name2num["ssetmask"]=69
__syscall_32_num2name[106]="stat"
__syscall_32_name2num["stat"]=106
__syscall_32_num2name[195]="stat64"
__syscall_32_name2num["stat64"]=195
__syscall_32_num2name[99]="statfs"
__syscall_32_num2name[266]="statfs64"
__syscall_32_name2num["statfs64"]=266
__syscall_32_name2num["statfs"]=99
__syscall_32_num2name[397]="statx"
__syscall_32_name2num["statx"]=397
__syscall_32_num2name[25]="stime"
__syscall_32_name2num["stime"]=25
__syscall_32_num2name[31]="stty"
__syscall_32_name2num["stty"]=31
__syscall_32_num2name[115]="swapoff"
__syscall_32_name2num["swapoff"]=115
__syscall_32_num2name[87]="swapon"
__syscall_32_name2num["swapon"]=87
__syscall_32_num2name[83]="symlink"
__syscall_32_name2num["symlink"]=83
__syscall_32_num2name[331]="symlinkat"
__syscall_32_name2num["symlinkat"]=331
__syscall_32_num2name[36]="sync"
__syscall_32_name2num["sync"]=36
__syscall_32_num2name[341]="sync_file_range2"
__syscall_32_name2num["sync_file_range2"]=341
__syscall_32_num2name[373]="syncfs"
__syscall_32_name2num["syncfs"]=373
__syscall_32_num2name[113]="syscall"
__syscall_32_name2num["syscall"]=113
__syscall_32_num2name[149]="_sysctl"
__syscall_32_name2num["_sysctl"]=149
__syscall_32_num2name[135]="sysfs"
__syscall_32_name2num["sysfs"]=135
__syscall_32_num2name[116]="sysinfo"
__syscall_32_name2num["sysinfo"]=116
__syscall_32_num2name[103]="syslog"
__syscall_32_name2num["syslog"]=103
__syscall_32_num2name[342]="tee"
__syscall_32_name2num["tee"]=342
__syscall_32_num2name[268]="tgkill"
__syscall_32_name2num["tgkill"]=268
__syscall_32_num2name[13]="time"
__syscall_32_name2num["time"]=13
__syscall_32_num2name[257]="timer_create"
__syscall_32_name2num["timer_create"]=257
__syscall_32_num2name[261]="timer_delete"
__syscall_32_name2num["timer_delete"]=261
__syscall_32_num2name[350]="timerfd_create"
__syscall_32_name2num["timerfd_create"]=350
__syscall_32_num2name[354]="timerfd_gettime"
__syscall_32_name2num["timerfd_gettime"]=354
__syscall_32_num2name[0+410]="timerfd_gettime64"
__syscall_32_name2num["timerfd_gettime64"]=0+410
__syscall_32_num2name[353]="timerfd_settime"
__syscall_32_name2num["timerfd_settime"]=353
__syscall_32_num2name[0+411]="timerfd_settime64"
__syscall_32_name2num["timerfd_settime64"]=0+411
__syscall_32_num2name[260]="timer_getoverrun"
__syscall_32_name2num["timer_getoverrun"]=260
__syscall_32_num2name[259]="timer_gettime"
__syscall_32_name2num["timer_gettime"]=259
__syscall_32_num2name[0+408]="timer_gettime64"
__syscall_32_name2num["timer_gettime64"]=0+408
__syscall_32_num2name[258]="timer_settime"
__syscall_32_name2num["timer_settime"]=258
__syscall_32_num2name[0+409]="timer_settime64"
__syscall_32_name2num["timer_settime64"]=0+409
__syscall_32_num2name[43]="times"
__syscall_32_name2num["times"]=43
__syscall_32_num2name[238]="tkill"
__syscall_32_name2num["tkill"]=238
__syscall_32_num2name[92]="truncate"
__syscall_32_num2name[193]="truncate64"
__syscall_32_name2num["truncate64"]=193
__syscall_32_name2num["truncate"]=92
__syscall_32_num2name[191]="ugetrlimit"
__syscall_32_name2num["ugetrlimit"]=191
__syscall_32_num2name[58]="ulimit"
__syscall_32_name2num["ulimit"]=58
__syscall_32_num2name[60]="umask"
__syscall_32_name2num["umask"]=60
__syscall_32_num2name[22]="umount"
__syscall_32_num2name[52]="umount2"
__syscall_32_name2num["umount"]=22
__syscall_32_name2num["umount2"]=52
__syscall_32_num2name[122]="uname"
__syscall_32_name2num["uname"]=122
__syscall_32_num2name[10]="unlink"
__syscall_32_name2num["unlink"]=10
__syscall_32_num2name[328]="unlinkat"
__syscall_32_name2num["unlinkat"]=328
__syscall_32_num2name[337]="unshare"
__syscall_32_name2num["unshare"]=337
__syscall_32_num2name[86]="uselib"
__syscall_32_name2num["uselib"]=86
__syscall_32_num2name[388]="userfaultfd"
__syscall_32_name2num["userfaultfd"]=388
__syscall_32_num2name[(((500)+(21))+25)+1+3]="usr26"
__syscall_32_name2num["usr26"]=(((500)+(21))+25)+1+3
__syscall_32_num2name[(((500)+(21))+25)+1+4]="usr32"
__syscall_32_name2num["usr32"]=(((500)+(21))+25)+1+4
__syscall_32_num2name[62]="ustat"
__syscall_32_name2num["ustat"]=62
__syscall_32_num2name[30]="utime"
__syscall_32_name2num["utime"]=30
__syscall_32_num2name[348]="utimensat"
__syscall_32_name2num["utimensat"]=348
__syscall_32_num2name[0+412]="utimensat_time64"
__syscall_32_name2num["utimensat_time64"]=0+412
__syscall_32_num2name[269]="utimes"
__syscall_32_name2num["utimes"]=269
__syscall_32_num2name[190]="vfork"
__syscall_32_name2num["vfork"]=190
__syscall_32_num2name[111]="vhangup"
__syscall_32_name2num["vhangup"]=111
__syscall_32_num2name[166]="vm86"
__syscall_32_name2num["vm86"]=166
__syscall_32_num2name[343]="vmsplice"
__syscall_32_name2num["vmsplice"]=343
__syscall_32_num2name[313]="vserver"
__syscall_32_name2num["vserver"]=313
__syscall_32_num2name[114]="wait4"
__syscall_32_name2num["wait4"]=114
__syscall_32_num2name[280]="waitid"
__syscall_32_name2num["waitid"]=280
__syscall_32_num2name[7]="waitpid"
__syscall_32_name2num["waitpid"]=7
__syscall_32_num2name[4]="write"
__syscall_32_name2num["write"]=4
__syscall_32_num2name[146]="writev"
__syscall_32_name2num["writev"]=146
%)
} /* probe init */
